…
## Predictions

Top predictions from the model

``` r
preds |>
    slice_max(.pred_yes, n = 50) |>
    arrange(desc(.pred_yes)) |>
    mutate_if(is.numeric, round, 3) |>
    select(game_id, name, yearpublished, .pred_yes, own)
```

    # A tibble: 50 × 5
       game_id name                             yearpublished .pred_yes own  
         <dbl> <chr>                                    <dbl>     <dbl> <fct>
     1  390478 Gloomhaven: Second Edition                2024     0.532 no   
     2  416510 Akhedena                                  2024     0.531 no   
     3  382518 Sankoré: The Pride of Mansa Musa          2024     0.522 no   
     4  258779 Planet Unknown                            2022     0.466 no   
     5  354051 SPYBAM                                    2022     0.448 no   
     6  331106 The Witcher: Old World                    2023     0.43  no   
     7  366495 Undaunted: Battle of Britain              2023     0.413 yes  
     8  326936 Unmatched: Teen Spirit                    2023     0.41  no   
     9  326937 Unmatched: For King and Country           2023     0.41  no   
    10  305096 Endless Winter: Paleoamericans            2022     0.409 no   
    # ℹ 40 more rows
